{
  "promo": 2026,
  "semester": 2,
  "projects": [
        {
            "module": "Elementary programming in C (Part I)",
            "project": "Dante's star",
            "start": "2022-03-07",
            "end": "2022-03-27",
            "bttf": false
        },
        {
            "module": "Elementary programming in C (Part I)",
            "project": "Lem-in",
            "start": "2022-03-28",
            "end": "2022-04-24",
            "bttf": false
        },
        {
            "module": "Elementary programming in C (Part I)",
            "project": "Dante's star",
            "start": "2022-04-25",
            "end": "2022-05-01",
            "bttf": true
        },
        {
            "module": "Elementary programming in C (Part I)",
            "project": "Dante's star",
            "start": "2022-05-30",
            "end": "2022-06-05",
            "bttf": true
        },
        {
            "module": "Elementary programming in C (Part I)",
            "project": "Lem-in",
            "start": "2022-05-30",
            "end": "2022-06-05",
            "bttf": true
        },
        {
            "module": "Elementary programming in C (Part II)",
            "project": "Corewar",
            "start": "2022-04-25",
            "end": "2022-05-22",
            "bttf": false
        },
        {
            "module": "C Graphical Programming",
            "project": "Mydefender",
            "start": "2022-02-21",
            "end": "2022-03-20",
            "bttf": false
        },
        {
            "module": "C Graphical Programming",
            "project": "MyWorld",
            "start": "2022-02-21",
            "end": "2022-03-20",
            "bttf": false
        },
        {
            "module": "C Graphical Programming",
            "project": "MyRPG",
            "start": "2022-03-21",
            "end": "2022-05-08",
            "bttf": false
        },
        {
            "module": "C Graphical Programming",
            "project": "Mydefender",
            "start": "2022-04-25",
            "end": "2022-05-01",
            "bttf": true
        },
        {
            "module": "C Graphical Programming",
            "project": "MyWorld",
            "start": "2022-04-25",
            "end": "2022-05-01",
            "bttf": true
        },
        {
            "module": "C Graphical Programming",
            "project": "Mydefender",
            "start": "2022-05-30",
            "end": "2022-06-05",
            "bttf": true
        },
        {
            "module": "C Graphical Programming",
            "project": "MyWorld",
            "start": "2022-05-30",
            "end": "2022-06-05",
            "bttf": true
        },
        {
            "module": "Introduction to A.I.",
            "project": "Need4Stek",
            "start": "2022-04-04",
            "end": "2022-05-01",
            "bttf": false
        },
        {
            "module": "Introduction to A.I.",
            "project": "Need4Stek",
            "start": "2022-05-30",
            "end": "2022-06-05",
            "bttf": true
        },
        {
            "module": "Introduction to Cyber Security",
            "project": "Burp",
            "start": "2022-05-16",
            "end": "2022-05-29",
            "bttf": false
        },
        {
            "module": "Introduction to DevOps",
            "project": "Popeye",
            "start": "2022-02-28",
            "end": "2022-03-20",
            "bttf": false
        },
        {
            "module": "Introduction to DevOps",
            "project": "Chocolatine",
            "start": "2022-03-21",
            "end": "2022-04-10",
            "bttf": false
        },
        {
            "module": "Introduction to Web Development",
            "project": "EPyTodo",
            "start": "2022-05-02",
            "end": "2022-05-22",
            "bttf": false
        },
        {
            "module": "Mathematics",
            "project": "106bombyx",
            "start": "2022-02-21",
            "end": "2022-03-06",
            "bttf": false
        },
        {
            "module": "Mathematics",
            "project": "107transfer",
            "start": "2022-03-07",
            "end": "2022-03-20",
            "bttf": false
        },
        {
            "module": "Mathematics",
            "project": "108trigo",
            "start": "2022-03-21",
            "end": "2022-04-03",
            "bttf": false
        },
        {
            "module": "Mathematics",
            "project": "109titration",
            "start": "2022-04-04",
            "end": "2022-04-17",
            "bttf": false
        },
        {
            "module": "Mathematics",
            "project": "110borwein",
            "start": "2022-04-18",
            "end": "2022-05-01",
            "bttf": false
        },
        {
            "module": "Shell Programming",
            "project": "minishell2",
            "start": "2022-04-04",
            "end": "2022-04-24",
            "bttf": false
        },
        {
            "module": "Shell Programming",
            "project": "42sh",
            "start": "2022-05-05",
            "end": "2022-05-29",
            "bttf": false
        },
        {
            "module": "Shell Programming",
            "project": "minishell2",
            "start": "2022-05-30",
            "end": "2022-06-05",
            "bttf": true
        },
        {
            "module": "Unix System programming",
            "project": "my_sokoban",
            "start": "2022-02-21",
            "end": "2022-03-13",
            "bttf": false
        },
        {
            "module": "Unix System programming",
            "project": "Tetris",
            "start": "2022-03-14",
            "end": "2022-04-04",
            "bttf": false
        },
        {
            "module": "Unix System programming",
            "project": "my_sokoban",
            "start": "2022-04-25",
            "end": "2022-05-01",
            "bttf": true
        },
        {
            "module": "Unix System programming",
            "project": "Tetris",
            "start": "2022-04-25",
            "end": "2022-05-01",
            "bttf": true
        },
        {
            "module": "Unix System programming",
            "project": "my_sokoban",
            "start": "2022-05-30",
            "end": "2022-06-05",
            "bttf": true
        },
        {
            "module": "Unix System programming",
            "project": "Tetris",
            "start": "2022-05-30",
            "end": "2022-06-05",
            "bttf": true
        }
    ]
}
